{
    "UserAgent": "aws-amplify/cli",
    "Version": "0.1.0",
    "IdentityManager": {
        "Default": {}
    },
    "AppSync": {
        "Default": {
            "ApiUrl": "https://kjngzeb5snazhhj4jo4gjvtysu.appsync-api.us-east-1.amazonaws.com/graphql",
            "Region": "us-east-1",
            "AuthMode": "API_KEY",
            "ApiKey": "da2-nb72jq7fmrbztjxcukr7oeeu7u"
        }
    },
    "CredentialsProvider": {
        "CognitoIdentity": {
            "Default": {
                "PoolId": "us-east-1:db54ecd4-317a-4dc4-ad8b-b5b79de66977",
                "Region": "us-east-1"
            }
        }
    },
    "CognitoUserPool": {
        "Default": {
            "PoolId": "us-east-1_sZs0F4LuN",
            "AppClientId": "4hkdc2vtd99pub3cf79hd6ph5e",
            "AppClientSecret": "1qtna8tgpg5u07gbh24ag4qfu37smq4b7ot2635snodcf8jd4rgg",
            "Region": "us-east-1"
        }
    },
    "GoogleSignIn": {
        "Permissions": "email,profile,openid",
        "ClientId-WebApp": "19375998620-3kh6ccrk4ecmi4t690a00oimdrj7mdsf.apps.googleusercontent.com",
        "ClientId-iOS": "19375998620-kqpnecldni86ooarhse48e3oip8fo2hb.apps.googleusercontent.com"
    },
    "FacebookSignIn": {
        "AppId": "254738775198721",
        "Permissions": "public_profile"
    },
    "S3TransferUtility": {
        "Default": {
            "Bucket": "orkabucket",
            "Region": "us-east-1"
        }
    }
}