{
    "AWSTemplateFormatVersion": "2010-09-09",
    "Metadata": {},
    "Parameters": {
        "AppSyncApiName": {
            "Type": "String",
            "Description": "The name of the AppSync API",
            "Default": "AppSyncSimpleTransform"
        },
        "DynamoDBModelTableReadIOPS": {
            "Type": "Number",
            "Description": "The number of read IOPS the table should support.",
            "Default": 5
        },
        "DynamoDBModelTableWriteIOPS": {
            "Type": "Number",
            "Description": "The number of write IOPS the table should support.",
            "Default": 5
        },
        "ResolverBucket": {
            "Type": "String",
            "Description": "The name of the bucket containing the resolver templates"
        },
        "ResolverRootKey": {
            "Type": "String",
            "Description": "The s3 key of the folder containing the resolver templates in format {Type}.{Field}.[response|request].{Timestamp}"
        },
        "DeploymentTimestamp": {
            "Type": "String",
            "Description": "The timestamp used to identify thie most recent version of the resolver templates in s3."
        },
        "schemaGraphql": {
            "Type": "String",
            "Description": "The S3 location for the Schema: schema.graphql"
        }
    },
    "Resources": {
        "GraphQLSchema": {
            "Type": "AWS::AppSync::GraphQLSchema",
            "Properties": {
                "ApiId": {
                    "Fn::GetAtt": [
                        "GraphQLAPI",
                        "ApiId"
                    ]
                },
                "DefinitionS3Location": {
                    "Ref": "schemaGraphql"
                }
            }
        },
        "GraphQLAPI": {
            "Type": "AWS::AppSync::GraphQLApi",
            "Properties": {
                "Name": {
                    "Ref": "AppSyncApiName"
                },
                "AuthenticationType": "API_KEY"
            }
        },
        "GraphQLAPIKey": {
            "Type": "AWS::AppSync::ApiKey",
            "Properties": {
                "ApiId": {
                    "Fn::GetAtt": [
                        "GraphQLAPI",
                        "ApiId"
                    ]
                }
            }
        },
        "MyTypeTable": {
            "Type": "AWS::DynamoDB::Table",
            "Properties": {
                "TableName": {
                    "Fn::Join": [
                        "-",
                        [
                            "MyType",
                            {
                                "Fn::GetAtt": [
                                    "GraphQLAPI",
                                    "ApiId"
                                ]
                            }
                        ]
                    ]
                },
                "KeySchema": [
                    {
                        "AttributeName": "id",
                        "KeyType": "HASH"
                    }
                ],
                "AttributeDefinitions": [
                    {
                        "AttributeName": "id",
                        "AttributeType": "S"
                    }
                ],
                "ProvisionedThroughput": {
                    "ReadCapacityUnits": {
                        "Ref": "DynamoDBModelTableReadIOPS"
                    },
                    "WriteCapacityUnits": {
                        "Ref": "DynamoDBModelTableWriteIOPS"
                    }
                },
                "StreamSpecification": {
                    "StreamViewType": "NEW_AND_OLD_IMAGES"
                }
            }
        },
        "MyTypeIAMRole": {
            "Type": "AWS::IAM::Role",
            "Properties": {
                "RoleName": {
                    "Fn::Join": [
                        "-",
                        [
                            "MyTypeTable",
                            "role",
                            {
                                "Fn::GetAtt": [
                                    "GraphQLAPI",
                                    "ApiId"
                                ]
                            }
                        ]
                    ]
                },
                "AssumeRolePolicyDocument": {
                    "Version": "2012-10-17",
                    "Statement": [
                        {
                            "Effect": "Allow",
                            "Principal": {
                                "Service": "appsync.amazonaws.com"
                            },
                            "Action": "sts:AssumeRole"
                        }
                    ]
                },
                "Policies": [
                    {
                        "PolicyName": "DynamoDBAccess",
                        "PolicyDocument": {
                            "Version": "2012-10-17",
                            "Statement": [
                                {
                                    "Effect": "Allow",
                                    "Action": [
                                        "dynamodb:BatchGetItem",
                                        "dynamodb:BatchWriteItem",
                                        "dynamodb:PutItem",
                                        "dynamodb:DeleteItem",
                                        "dynamodb:GetItem",
                                        "dynamodb:Scan",
                                        "dynamodb:Query",
                                        "dynamodb:UpdateItem"
                                    ],
                                    "Resource": [
                                        {
                                            "Fn::GetAtt": [
                                                "MyTypeTable",
                                                "Arn"
                                            ]
                                        },
                                        {
                                            "Fn::Join": [
                                                "/",
                                                [
                                                    {
                                                        "Fn::GetAtt": [
                                                            "MyTypeTable",
                                                            "Arn"
                                                        ]
                                                    },
                                                    "*"
                                                ]
                                            ]
                                        }
                                    ]
                                }
                            ]
                        }
                    }
                ]
            }
        },
        "MyTypeDataSource": {
            "Type": "AWS::AppSync::DataSource",
            "Properties": {
                "ApiId": {
                    "Fn::GetAtt": [
                        "GraphQLAPI",
                        "ApiId"
                    ]
                },
                "Name": "MyTypeTable",
                "Type": "AMAZON_DYNAMODB",
                "ServiceRoleArn": {
                    "Fn::GetAtt": [
                        "MyTypeIAMRole",
                        "Arn"
                    ]
                },
                "DynamoDBConfig": {
                    "AwsRegion": {
                        "Fn::Select": [
                            3,
                            {
                                "Fn::Split": [
                                    ":",
                                    {
                                        "Fn::GetAtt": [
                                            "MyTypeTable",
                                            "Arn"
                                        ]
                                    }
                                ]
                            }
                        ]
                    },
                    "TableName": {
                        "Ref": "MyTypeTable"
                    }
                }
            },
            "DependsOn": "MyTypeIAMRole"
        },
        "GetMyTypeResolver": {
            "Type": "AWS::AppSync::Resolver",
            "Properties": {
                "ApiId": {
                    "Fn::GetAtt": [
                        "GraphQLAPI",
                        "ApiId"
                    ]
                },
                "DataSourceName": {
                    "Fn::GetAtt": [
                        "MyTypeDataSource",
                        "Name"
                    ]
                },
                "FieldName": "getMyType",
                "TypeName": "Query",
                "RequestMappingTemplateS3Location": {
                    "Fn::Join": [
                        "",
                        [
                            "s3://",
                            {
                                "Fn::Join": [
                                    "/",
                                    [
                                        {
                                            "Ref": "ResolverBucket"
                                        },
                                        {
                                            "Ref": "ResolverRootKey"
                                        },
                                        {
                                            "Fn::Join": [
                                                ".",
                                                [
                                                    "Query",
                                                    "getMyType",
                                                    "request",
                                                    {
                                                        "Ref": "DeploymentTimestamp"
                                                    }
                                                ]
                                            ]
                                        }
                                    ]
                                ]
                            }
                        ]
                    ]
                },
                "ResponseMappingTemplateS3Location": {
                    "Fn::Join": [
                        "",
                        [
                            "s3://",
                            {
                                "Fn::Join": [
                                    "/",
                                    [
                                        {
                                            "Ref": "ResolverBucket"
                                        },
                                        {
                                            "Ref": "ResolverRootKey"
                                        },
                                        {
                                            "Fn::Join": [
                                                ".",
                                                [
                                                    "Query",
                                                    "getMyType",
                                                    "response",
                                                    {
                                                        "Ref": "DeploymentTimestamp"
                                                    }
                                                ]
                                            ]
                                        }
                                    ]
                                ]
                            }
                        ]
                    ]
                }
            },
            "DependsOn": "GraphQLSchema"
        },
        "ListMyTypeResolver": {
            "Type": "AWS::AppSync::Resolver",
            "Properties": {
                "ApiId": {
                    "Fn::GetAtt": [
                        "GraphQLAPI",
                        "ApiId"
                    ]
                },
                "DataSourceName": {
                    "Fn::GetAtt": [
                        "MyTypeDataSource",
                        "Name"
                    ]
                },
                "FieldName": "listMyTypes",
                "TypeName": "Query",
                "RequestMappingTemplateS3Location": {
                    "Fn::Join": [
                        "",
                        [
                            "s3://",
                            {
                                "Fn::Join": [
                                    "/",
                                    [
                                        {
                                            "Ref": "ResolverBucket"
                                        },
                                        {
                                            "Ref": "ResolverRootKey"
                                        },
                                        {
                                            "Fn::Join": [
                                                ".",
                                                [
                                                    "Query",
                                                    "listMyTypes",
                                                    "request",
                                                    {
                                                        "Ref": "DeploymentTimestamp"
                                                    }
                                                ]
                                            ]
                                        }
                                    ]
                                ]
                            }
                        ]
                    ]
                },
                "ResponseMappingTemplateS3Location": {
                    "Fn::Join": [
                        "",
                        [
                            "s3://",
                            {
                                "Fn::Join": [
                                    "/",
                                    [
                                        {
                                            "Ref": "ResolverBucket"
                                        },
                                        {
                                            "Ref": "ResolverRootKey"
                                        },
                                        {
                                            "Fn::Join": [
                                                ".",
                                                [
                                                    "Query",
                                                    "listMyTypes",
                                                    "response",
                                                    {
                                                        "Ref": "DeploymentTimestamp"
                                                    }
                                                ]
                                            ]
                                        }
                                    ]
                                ]
                            }
                        ]
                    ]
                }
            },
            "DependsOn": "GraphQLSchema"
        },
        "CreateMyTypeResolver": {
            "Type": "AWS::AppSync::Resolver",
            "Properties": {
                "ApiId": {
                    "Fn::GetAtt": [
                        "GraphQLAPI",
                        "ApiId"
                    ]
                },
                "DataSourceName": {
                    "Fn::GetAtt": [
                        "MyTypeDataSource",
                        "Name"
                    ]
                },
                "FieldName": "createMyType",
                "TypeName": "Mutation",
                "RequestMappingTemplateS3Location": {
                    "Fn::Join": [
                        "",
                        [
                            "s3://",
                            {
                                "Fn::Join": [
                                    "/",
                                    [
                                        {
                                            "Ref": "ResolverBucket"
                                        },
                                        {
                                            "Ref": "ResolverRootKey"
                                        },
                                        {
                                            "Fn::Join": [
                                                ".",
                                                [
                                                    "Mutation",
                                                    "createMyType",
                                                    "request",
                                                    {
                                                        "Ref": "DeploymentTimestamp"
                                                    }
                                                ]
                                            ]
                                        }
                                    ]
                                ]
                            }
                        ]
                    ]
                },
                "ResponseMappingTemplateS3Location": {
                    "Fn::Join": [
                        "",
                        [
                            "s3://",
                            {
                                "Fn::Join": [
                                    "/",
                                    [
                                        {
                                            "Ref": "ResolverBucket"
                                        },
                                        {
                                            "Ref": "ResolverRootKey"
                                        },
                                        {
                                            "Fn::Join": [
                                                ".",
                                                [
                                                    "Mutation",
                                                    "createMyType",
                                                    "response",
                                                    {
                                                        "Ref": "DeploymentTimestamp"
                                                    }
                                                ]
                                            ]
                                        }
                                    ]
                                ]
                            }
                        ]
                    ]
                }
            },
            "DependsOn": "GraphQLSchema"
        },
        "UpdateMyTypeResolver": {
            "Type": "AWS::AppSync::Resolver",
            "Properties": {
                "ApiId": {
                    "Fn::GetAtt": [
                        "GraphQLAPI",
                        "ApiId"
                    ]
                },
                "DataSourceName": {
                    "Fn::GetAtt": [
                        "MyTypeDataSource",
                        "Name"
                    ]
                },
                "FieldName": "updateMyType",
                "TypeName": "Mutation",
                "RequestMappingTemplateS3Location": {
                    "Fn::Join": [
                        "",
                        [
                            "s3://",
                            {
                                "Fn::Join": [
                                    "/",
                                    [
                                        {
                                            "Ref": "ResolverBucket"
                                        },
                                        {
                                            "Ref": "ResolverRootKey"
                                        },
                                        {
                                            "Fn::Join": [
                                                ".",
                                                [
                                                    "Mutation",
                                                    "updateMyType",
                                                    "request",
                                                    {
                                                        "Ref": "DeploymentTimestamp"
                                                    }
                                                ]
                                            ]
                                        }
                                    ]
                                ]
                            }
                        ]
                    ]
                },
                "ResponseMappingTemplateS3Location": {
                    "Fn::Join": [
                        "",
                        [
                            "s3://",
                            {
                                "Fn::Join": [
                                    "/",
                                    [
                                        {
                                            "Ref": "ResolverBucket"
                                        },
                                        {
                                            "Ref": "ResolverRootKey"
                                        },
                                        {
                                            "Fn::Join": [
                                                ".",
                                                [
                                                    "Mutation",
                                                    "updateMyType",
                                                    "response",
                                                    {
                                                        "Ref": "DeploymentTimestamp"
                                                    }
                                                ]
                                            ]
                                        }
                                    ]
                                ]
                            }
                        ]
                    ]
                }
            },
            "DependsOn": "GraphQLSchema"
        },
        "DeleteMyTypeResolver": {
            "Type": "AWS::AppSync::Resolver",
            "Properties": {
                "ApiId": {
                    "Fn::GetAtt": [
                        "GraphQLAPI",
                        "ApiId"
                    ]
                },
                "DataSourceName": {
                    "Fn::GetAtt": [
                        "MyTypeDataSource",
                        "Name"
                    ]
                },
                "FieldName": "deleteMyType",
                "TypeName": "Mutation",
                "RequestMappingTemplateS3Location": {
                    "Fn::Join": [
                        "",
                        [
                            "s3://",
                            {
                                "Fn::Join": [
                                    "/",
                                    [
                                        {
                                            "Ref": "ResolverBucket"
                                        },
                                        {
                                            "Ref": "ResolverRootKey"
                                        },
                                        {
                                            "Fn::Join": [
                                                ".",
                                                [
                                                    "Mutation",
                                                    "deleteMyType",
                                                    "request",
                                                    {
                                                        "Ref": "DeploymentTimestamp"
                                                    }
                                                ]
                                            ]
                                        }
                                    ]
                                ]
                            }
                        ]
                    ]
                },
                "ResponseMappingTemplateS3Location": {
                    "Fn::Join": [
                        "",
                        [
                            "s3://",
                            {
                                "Fn::Join": [
                                    "/",
                                    [
                                        {
                                            "Ref": "ResolverBucket"
                                        },
                                        {
                                            "Ref": "ResolverRootKey"
                                        },
                                        {
                                            "Fn::Join": [
                                                ".",
                                                [
                                                    "Mutation",
                                                    "deleteMyType",
                                                    "response",
                                                    {
                                                        "Ref": "DeploymentTimestamp"
                                                    }
                                                ]
                                            ]
                                        }
                                    ]
                                ]
                            }
                        ]
                    ]
                }
            },
            "DependsOn": "GraphQLSchema"
        }
    },
    "Outputs": {
        "GraphQLAPIIdOutput": {
            "Description": "Your GraphQL API ID.",
            "Value": {
                "Fn::GetAtt": [
                    "GraphQLAPI",
                    "ApiId"
                ]
            },
            "Export": {
                "Name": {
                    "Fn::Join": [
                        ":",
                        [
                            {
                                "Ref": "AWS::StackName"
                            },
                            "GraphQLApiId"
                        ]
                    ]
                }
            }
        },
        "GraphQLAPIEndpointOutput": {
            "Description": "Your GraphQL API endpoint.",
            "Value": {
                "Fn::GetAtt": [
                    "GraphQLAPI",
                    "GraphQLUrl"
                ]
            },
            "Export": {
                "Name": {
                    "Fn::Join": [
                        ":",
                        [
                            {
                                "Ref": "AWS::StackName"
                            },
                            "GraphQLApiEndpoint"
                        ]
                    ]
                }
            }
        },
        "GraphQLAPIKeyOutput": {
            "Description": "Your GraphQL API key. Provide via 'x-api-key' header.",
            "Value": {
                "Fn::GetAtt": [
                    "GraphQLAPIKey",
                    "ApiKey"
                ]
            },
            "Export": {
                "Name": {
                    "Fn::Join": [
                        ":",
                        [
                            {
                                "Ref": "AWS::StackName"
                            },
                            "GraphQLApiKey"
                        ]
                    ]
                }
            }
        }
    }
}